SVN-fs-dump-format-version: 3

UUID: cedfd074-3935-4af2-8215-cafa45e2a0ba

Revision-number: 0
Prop-content-length: 56
Content-length: 56

K 8
svn:date
V 27
2022-04-01T00:44:09.647053Z
PROPS-END

Revision-number: 1
Prop-content-length: 130
Content-length: 130

K 10
svn:author
V 6
phread
K 8
svn:date
V 27
2022-04-01T00:44:10.262797Z
K 7
svn:log
V 29
Setting property on the root.
PROPS-END

Node-path: 
Node-kind: dir
Node-action: change
Prop-delta: true
Prop-content-length: 40
Content-length: 40

K 14
customproperty
V 5
myval
PROPS-END


