SVN-fs-dump-format-version: 2

UUID: 4ddd958b-920f-4636-aeaf-d11a6b1d028e

Revision-number: 0
Prop-content-length: 56
Content-length: 56

K 8
svn:date
V 27
2022-04-01T00:43:58.337944Z
PROPS-END

Revision-number: 1
Prop-content-length: 114
Content-length: 114

K 10
svn:author
V 6
phread
K 8
svn:date
V 27
2022-04-01T00:43:59.052095Z
K 7
svn:log
V 13
Added readme.
PROPS-END

Node-path: README.txt
Node-kind: file
Node-action: add
Text-content-md5: b264e4c43787cb81e7d4c5eb4b006427
Text-content-sha1: fb7cf39e8e0becdcd0468863cdc653e61f1d9f9c
Prop-content-length: 10
Text-content-length: 21
Content-length: 31

PROPS-END
This is a text file.


Revision-number: 2
Prop-content-length: 115
Content-length: 115

K 10
svn:author
V 6
phread
K 8
svn:date
V 27
2022-04-01T00:43:59.581096Z
K 7
svn:log
V 14
Deleting file.
PROPS-END

Node-path: README.txt
Node-action: delete


Revision-number: 3
Prop-content-length: 123
Content-length: 123

K 10
svn:author
V 6
phread
K 8
svn:date
V 27
2022-04-01T00:44:00.337239Z
K 7
svn:log
V 22
Copied readme from r1.
PROPS-END

Node-path: README.txt
Node-kind: file
Node-action: add
Node-copyfrom-rev: 1
Node-copyfrom-path: README.txt
Text-copy-source-md5: b264e4c43787cb81e7d4c5eb4b006427
Text-copy-source-sha1: fb7cf39e8e0becdcd0468863cdc653e61f1d9f9c
Text-content-md5: 2d282102fa671256327d4767ec23bc6b
Text-content-sha1: e6c4fbd4fe7607f3e6ebf68b2ea4ef694da7b4fe
Text-content-length: 21
Content-length: 21

This is a test file.


Revision-number: 4
Prop-content-length: 115
Content-length: 115

K 10
svn:author
V 6
phread
K 8
svn:date
V 27
2022-04-01T00:44:00.857937Z
K 7
svn:log
V 14
Deleting file.
PROPS-END

Node-path: README.txt
Node-action: delete


Revision-number: 5
Prop-content-length: 123
Content-length: 123

K 10
svn:author
V 6
phread
K 8
svn:date
V 27
2022-04-01T00:44:01.672570Z
K 7
svn:log
V 22
Copied readme from r3.
PROPS-END

Node-path: README.txt
Node-kind: file
Node-action: add
Node-copyfrom-rev: 3
Node-copyfrom-path: README.txt
Text-copy-source-md5: 2d282102fa671256327d4767ec23bc6b
Text-copy-source-sha1: e6c4fbd4fe7607f3e6ebf68b2ea4ef694da7b4fe
Text-content-md5: 33fb2ffd28461fa230b730f0d9db81c9
Text-content-sha1: 8eb231a85a9445902571ef2ca8e3f64ec085519d
Text-content-length: 21
Content-length: 21

This is a test file!


