SVN-fs-dump-format-version: 2

UUID: 5064dbb0-d59e-47c9-9d4e-70c4b81a82c7

Revision-number: 0
Prop-content-length: 56
Content-length: 56

K 8
svn:date
V 27
2022-04-01T00:44:50.392761Z
PROPS-END

Revision-number: 1
Prop-content-length: 121
Content-length: 121

K 10
svn:author
V 6
phread
K 8
svn:date
V 27
2022-04-01T00:44:51.085094Z
K 7
svn:log
V 20
Committed README.txt
PROPS-END

Node-path: README.txt
Node-kind: file
Node-action: add
Text-content-md5: 4221d002ceb5d3c9e9137e495ceaa647
Text-content-sha1: 804d716fc5844f1cc5516c8f0be7a480517fdea2
Prop-content-length: 10
Text-content-length: 20
Content-length: 30

PROPS-END
this is a test file


Revision-number: 2
Prop-content-length: 137
Content-length: 137

K 10
svn:author
V 6
phread
K 8
svn:date
V 27
2022-04-01T00:44:51.687973Z
K 7
svn:log
V 36
Renamed README.txt to README-new.txt
PROPS-END

Node-path: README-new.txt
Node-kind: file
Node-action: add
Node-copyfrom-rev: 1
Node-copyfrom-path: README.txt
Text-copy-source-md5: 4221d002ceb5d3c9e9137e495ceaa647
Text-copy-source-sha1: 804d716fc5844f1cc5516c8f0be7a480517fdea2


Node-path: README.txt
Node-action: delete


